{
    "@context": [
        "https://www.w3.org/2018/credentials/v1"
    ],
    "@id": "https://gitlab.com/yves-marie/employee/-/blob/041e0c9a1d641b36e369cc7f2b08517e3c3c3c0e/employee_signed.json",
    "issuer": "did:web:montblanc-dao.com",
    "issuanceDate": "2022-09-25T23:23:23.235Z",
    "credentialSubject": {
        "@id": "https://gitlab.com/yves-marie/employee/-/blob/041e0c9a1d641b36e369cc7f2b08517e3c3c3c0e/employee_signed.json",
        "@type": "Employee",
        "revocationId": "alice", 
        "userid": "alice",
        "displayName": "Alice Gregorius",
        "givenName" : "Alice", 
        "surname" : "Gregorius",
        "jobTitle": "Data Analyst",
        "preferredLanguage": "en",
        "mail": "alice@montblanc.fr",
        "company": "Montblanc",
        "org": "/montblanc/is/data"
    }
}

   
   
